{
    "lib": {
        "www": {
            "id": "foo.bar.MyApp2",
            "version": "3.4.0",
            "uri": "https://github.com/phonegap/phonegap-app-hello-world/archive/3.4.0.tar.gz"
        }
    }
}